<?xml version="1.0" encoding="UTF-8" standalone="no"?>
<svg
   xmlns:dc="http://purl.org/dc/elements/1.1/"
   xmlns:cc="http://creativecommons.org/ns#"
   xmlns:rdf="http://www.w3.org/1999/02/22-rdf-syntax-ns#"
   xmlns:svg="http://www.w3.org/2000/svg"
   xmlns="http://www.w3.org/2000/svg"
   xmlns:sodipodi="http://sodipodi.sourceforge.net/DTD/sodipodi-0.dtd"
   xmlns:inkscape="http://www.inkscape.org/namespaces/inkscape"
   version="1.1"
   x="0px"
   y="0px"
   viewBox="0 0 24 30"
   style="enable-background:new 0 0 24 24;"
   xml:space="preserve"
   id="svg2"
   inkscape:version="0.91 r13725"
   sodipodi:docname="bookmark_delete.svg"><metadata
     id="metadata20"><rdf:RDF><cc:Work
         rdf:about=""><dc:format>image/svg+xml</dc:format><dc:type
           rdf:resource="http://purl.org/dc/dcmitype/StillImage" /><dc:title></dc:title></cc:Work></rdf:RDF></metadata><defs
     id="defs18" /><sodipodi:namedview
     pagecolor="#ffffff"
     bordercolor="#666666"
     borderopacity="1"
     objecttolerance="10"
     gridtolerance="10"
     guidetolerance="10"
     inkscape:pageopacity="0"
     inkscape:pageshadow="2"
     inkscape:window-width="944"
     inkscape:window-height="1042"
     id="namedview16"
     showgrid="false"
     inkscape:zoom="22.250293"
     inkscape:cx="12.509584"
     inkscape:cy="14.965054"
     inkscape:window-x="0"
     inkscape:window-y="0"
     inkscape:window-maximized="0"
     inkscape:current-layer="g4" /><g
     id="g4"
     style="fill:#004a4a;fill-opacity:1"
     transform="matrix(1.0247175,0,0,1.0247175,-0.2966102,2.7033898)"><path
       style="fill:#ff9e9a;fill-opacity:1"
       d="m 19.127877,8.8709401 a 5.131546,5.131546 0 0 0 -7.256872,4e-7 5.131546,5.131546 0 0 0 0,7.2568715 5.131546,5.131546 0 0 0 7.256871,-10e-7 5.131546,5.131546 0 0 0 1e-6,-7.2568709 z m -1.362876,1.3628759 c 0.250095,0.250095 0.250096,0.657415 0,0.907511 l -1.359658,1.359658 1.359657,1.359657 c 0.250096,0.250096 0.250097,0.654197 0,0.904294 -0.250095,0.250095 -0.655806,0.251704 -0.905902,0.0016 l -1.359657,-1.359657 -1.359659,1.359658 c -0.250095,0.250095 -0.655806,0.248486 -0.905901,-0.0016 -0.250096,-0.250097 -0.250096,-0.654198 -1e-6,-0.904294 l 1.359658,-1.359658 -1.359658,-1.359657 c -0.250095,-0.250095 -0.250094,-0.657415 1e-6,-0.90751 0.250097,-0.2500969 0.655806,-0.2484875 0.905901,0.0016 l 1.359658,1.359657 1.359658,-1.359658 c 0.250096,-0.2500962 0.655806,-0.2517044 0.905903,-0.0016 z"
       id="path6"
       inkscape:connector-curvature="0" /><path
       d="m 17.933431,-0.86686299 -11.7946239,0 c -2.0694205,0 -3.7528351,1.68341457 -3.7528351,3.75283499 l 0,21.444772 c 0,0.216592 0.1308132,0.412812 0.3313218,0.495374 0.065406,0.02788 0.1361743,0.04074 0.2047975,0.04074 0.1393911,0 0.2766376,-0.05468 0.3795725,-0.156547 L 9.3576673,18.65324 c 2.4039587,2.372864 5.7257537,5.668926 5.9509237,5.914468 0.06648,0.13403 0.185498,0.236965 0.335611,0.278782 0.229459,0.06541 0.477146,-0.03217 0.60367,-0.236964 0.05576,-0.09007 0.08149,-0.195148 0.0772,-0.299155 l 0,-4.268582 c 0,-0.295937 -0.240182,-0.536119 -0.53612,-0.536119 -3.842903,0 -6.9695505,-3.126648 -6.9695505,-6.969551 0,-3.8429028 3.1266475,-6.9695505 6.9695505,-6.9695505 0.295938,0 0.53612,-0.2401814 0.53612,-0.5361193 l 0,-3.2167157 c 0,-0.88674134 0.721616,-1.60835791 1.608357,-1.60835791 0.295938,0 0.53612,-0.24018144 0.53612,-0.53611929 0,-0.29593785 -0.240182,-0.53611929 -0.53612,-0.53611929 z"
       id="path8"
       style="fill:#ff9e9a;fill-opacity:1"
       inkscape:connector-curvature="0" /><path
       d="m 17.933431,-0.86686299 -2.680596,0 c -0.295938,0 -0.536119,0.24018144 -0.536119,0.53611929 l 0,3.2167157 c 0,0.2959379 0.240181,0.5361193 0.536119,0.5361193 l 1.072239,0 0,-1.6083578 c 0,-0.88674134 0.721616,-1.60835791 1.608357,-1.60835791 0.295938,0 0.53612,0.24018144 0.53612,0.53611929 0,0.29593782 -0.240182,0.53611932 -0.53612,0.53611932 -0.294865,0 -0.536119,0.2401814 -0.536119,0.5361193 l 0,1.6083578 2.680597,0 c 0.295938,0 0.536119,-0.2401814 0.536119,-0.5361193 l 0,-1.0722385 c 0,-1.4775448 -1.201979,-2.68059649 -2.680597,-2.68059649 z"
       id="path10"
       style="fill:#ff9e9a;fill-opacity:1"
       inkscape:connector-curvature="0" /></g></svg>