<?xml version="1.0" encoding="UTF-8" standalone="no"?>
<svg
   xmlns:dc="http://purl.org/dc/elements/1.1/"
   xmlns:cc="http://creativecommons.org/ns#"
   xmlns:rdf="http://www.w3.org/1999/02/22-rdf-syntax-ns#"
   xmlns:svg="http://www.w3.org/2000/svg"
   xmlns="http://www.w3.org/2000/svg"
   xmlns:sodipodi="http://sodipodi.sourceforge.net/DTD/sodipodi-0.dtd"
   xmlns:inkscape="http://www.inkscape.org/namespaces/inkscape"
   version="1.1"
   preserveAspectRatio="none"
   x="0px"
   y="0px"
   viewBox="0 0 89.976921 89.986366"
   id="svg4136"
   inkscape:version="0.91 r13725"
   sodipodi:docname="configuration.svg"
   width="89.976921"
   height="89.986366"
   inkscape:export-filename="Z:\projects\occam\UI\configuration.png"
   inkscape:export-xdpi="15.002273"
   inkscape:export-ydpi="15.002273">
  <defs
     id="defs4141" />
  <metadata
     id="metadata4153">
    <rdf:RDF>
      <cc:Work
         rdf:about="">
        <dc:format>image/svg+xml</dc:format>
        <dc:type
           rdf:resource="http://purl.org/dc/dcmitype/StillImage" />
        <dc:title></dc:title>
      </cc:Work>
    </rdf:RDF>
  </metadata>
  <sodipodi:namedview
     pagecolor="#ffffff"
     bordercolor="#666666"
     borderopacity="1"
     objecttolerance="10"
     gridtolerance="10"
     guidetolerance="10"
     inkscape:pageopacity="0"
     inkscape:pageshadow="2"
     inkscape:window-width="1920"
     inkscape:window-height="1058"
     id="namedview4151"
     showgrid="false"
     inkscape:zoom="3.556"
     inkscape:cx="62.600096"
     inkscape:cy="13.440213"
     inkscape:window-x="-8"
     inkscape:window-y="-8"
     inkscape:window-maximized="1"
     inkscape:current-layer="g4143"
     fit-margin-top="0"
     fit-margin-left="0"
     fit-margin-right="0"
     fit-margin-bottom="0" />
  <g
     id="g4143"
     transform="translate(-5,-5.0136364)">
    <path
       d="M 10.4,22.55 34.1,46.5 46.4,34.2 22.4,10.55 q -2.4,-2.7 -6,-2.7 -3.6,0 -6,2.7 -2.7,2.4 -2.7,6 0,3.6 2.7,6 M 81.2,86.9 88.1,92 92,88.1 86.9,81.25 83,79.15 61.7,57.55 l -4.2,4.2 21.6,21.3 2.1,3.85 m 13.2,-56 q 1.5,-6 -0.9,-11.95 L 77.3,35.4 64.7,22.85 80.9,6.35 q -5.7,-2.1 -12,-0.9 -6.3,1.5 -10.8,6 -4.5,4.5 -5.7,10.8 -1.5,5.95 0.9,11.95 L 7.4,80.05 Q 5,82.45 5,86.3 q 0,3.6 2.4,6 2.7,2.7 6.3,2.7 3.6,0 6,-2.7 L 65.6,46.5 q 13.2,5.1 23.1,-4.8 4.5,-4.5 5.7,-10.8 M 15.2,80.95 q 1.5,0 2.7,1.2 2.4,2.35 0,5.05 -2.7,2.4 -5.1,0 -2.7,-2.7 0,-5.05 0.9,-1.2 2.4,-1.2 z"
       id="path4141"
       style="fill:#808080;stroke:none"
       inkscape:connector-curvature="0" />
  </g>
</svg>
