<?xml version="1.0" encoding="UTF-8" standalone="no"?>
<svg
   xmlns:dc="http://purl.org/dc/elements/1.1/"
   xmlns:cc="http://creativecommons.org/ns#"
   xmlns:rdf="http://www.w3.org/1999/02/22-rdf-syntax-ns#"
   xmlns:svg="http://www.w3.org/2000/svg"
   xmlns="http://www.w3.org/2000/svg"
   xmlns:sodipodi="http://sodipodi.sourceforge.net/DTD/sodipodi-0.dtd"
   xmlns:inkscape="http://www.inkscape.org/namespaces/inkscape"
   width="22"
   height="22"
   viewBox="0 0 22 22"
   version="1.1"
   id="svg2"
   inkscape:version="0.91 r13725"
   sodipodi:docname="paper_large.svg"
   inkscape:export-filename="Z:\projects\occam\Large-Icons\group_large.png"
   inkscape:export-xdpi="392.72726"
   inkscape:export-ydpi="392.72726">
  <metadata
     id="metadata14">
    <rdf:RDF>
      <cc:Work
         rdf:about="">
        <dc:format>image/svg+xml</dc:format>
        <dc:type
           rdf:resource="http://purl.org/dc/dcmitype/StillImage" />
        <dc:title>album_collection</dc:title>
      </cc:Work>
    </rdf:RDF>
  </metadata>
  <sodipodi:namedview
     pagecolor="#ffffff"
     bordercolor="#666666"
     borderopacity="1"
     objecttolerance="10"
     gridtolerance="10"
     guidetolerance="10"
     inkscape:pageopacity="0"
     inkscape:pageshadow="2"
     inkscape:window-width="1920"
     inkscape:window-height="1058"
     id="namedview12"
     showgrid="false"
     inkscape:zoom="31.999999"
     inkscape:cx="12.488912"
     inkscape:cy="9.3646624"
     inkscape:window-x="-8"
     inkscape:window-y="-8"
     inkscape:window-maximized="1"
     inkscape:current-layer="svg2" />
  <title
     id="title4">album_collection</title>
  <description
     id="description6">Created with Sketch (http://www.bohemiancoding.com/sketch)</description>
  <defs
     id="defs8" />
  <g
     transform="matrix(0.16038848,0,0,0.16038848,2.9791807,-149.76636)"
     id="g4"
     style="fill:#2da0b7;fill-opacity:1">
    <path
       inkscape:connector-curvature="0"
       d="m 49.6875,5 c -7.567207,0.0321 -15.23246,1.97951 -22.25,6.03125 -4.703906,2.71568 -8.735878,6.15099 -12.03125,10.09375 -5.956875,7.127 -9.4853124,15.90363 -10.28125,25 -0.040957,0.46591 0.121621,0.93647 0.4375,1.28125 0.3160547,0.34479 0.7824218,0.5628 1.25,0.5625 l 4.09375,0 c 0.831797,0 1.606816,-0.7033 1.6875,-1.53125 C 13.718398,34.78148 20.263047,23.80725 31.1875,17.5 c 16.954806,-9.7889 38.318008,-4.84109 49.375,10.84375 0.240469,0.34195 0.623086,0.59757 1.03125,0.6875 0.408164,0.09 0.825566,0.02169 1.1875,-0.1875 l 3.5625,-2.0625 c 0.402891,-0.23308 0.710723,-0.6395 0.8125,-1.09375 0.101954,-0.45424 0.01422,-0.9608 -0.25,-1.34375 C 78.24955,11.83944 64.133907,4.93867 49.6875,5 Z M 46.375,25.46875 c -2.313457,0 -4.21875,1.93652 -4.21875,4.25 l 0,37.4375 c 0,2.3135 1.905293,4.25 4.21875,4.25 l 7.25,0 c 2.313457,0 4.21875,-1.9365 4.21875,-4.25 l 0,-37.4375 c 0,-2.31348 -1.905293,-4.25 -4.21875,-4.25 l -7.25,0 z m 42.78125,4.375 c -0.311133,-0.008 -0.636954,0.06276 -0.90625,0.21875 l -3.5625,2.0625 c -0.360528,0.20906 -0.655391,0.5715 -0.78125,0.96875 -0.125684,0.39727 -0.08098,0.84047 0.09375,1.21875 7.588477,16.40997 2.332032,35.9822 -12.46875,46.375 -0.341895,0.2403 -0.5975,0.5919 -0.6875,1 -0.09,0.4081 -0.02186,0.85685 0.1875,1.21875 l 2.0625,3.5625 c 0.233262,0.403 0.639532,0.7105 1.09375,0.8125 C 74.641719,87.38315 75.148222,87.269 75.53125,87 93.620899,74.5238 100.01453,50.67179 90.625,30.8125 90.359746,30.25193 89.77623,29.8617 89.15625,29.84375 Z M 66.3125,35.375 c -2.313457,0 -4.21875,1.93655 -4.21875,4.25 l 0,27.53125 c 0,2.3135 1.905293,4.25 4.21875,4.25 l 7.25,0 c 2.313633,0 4.21875,-1.9365 4.21875,-4.25 l 0,-27.53125 c 0,-2.31345 -1.905117,-4.25 -4.21875,-4.25 l -7.25,0 z m -39.875,4.59375 c -2.313457,0 -4.21875,1.93654 -4.21875,4.25 l 0,22.9375 c 0,2.3135 1.905293,4.25 4.21875,4.25 l 7.25,0 c 2.313457,0 4.21875,-1.9365 4.21875,-4.25 l 0,-22.9375 c 0,-2.31346 -1.905293,-4.25 -4.21875,-4.25 l -7.25,0 z M 6.78125,51.75 c -0.4647657,0 -0.9344727,0.18995 -1.25,0.53125 -0.3155274,0.3413 -0.4737109,0.81775 -0.4375,1.28125 0.5111719,6.4682 2.4179102,12.9494 5.875,18.9375 2.029219,3.5147 4.471992,6.6367 7.21875,9.375 0.33082,0.3295 0.783301,0.5208 1.25,0.5 0.466172,-0.021 0.949941,-0.23605 1.25,-0.59375 l 2.625,-3.15625 c 0.268594,-0.3189 0.422773,-0.73955 0.40625,-1.15625 -0.01758,-0.4167 -0.206972,-0.8282 -0.5,-1.125 C 21.027989,74.11955 19.10457,71.5834 17.46875,68.75 14.637089,63.8453 13.025156,58.56645 12.5625,53.28125 12.52576,52.86445 12.339746,52.4699 12.03125,52.1875 11.722578,51.905 11.293359,51.7497 10.875,51.75 l -4.09375,0 z m 20.75,28.71875 c -0.496758,0 -0.992754,0.21355 -1.3125,0.59375 l -2.65625,3.15625 c -0.299883,0.3569 -0.434414,0.8502 -0.375,1.3125 0.05959,0.4623 0.307285,0.88675 0.6875,1.15625 12.919922,9.1595 30.196874,11.08765 45.1875,4.03125 0.422578,-0.1985 0.735254,-0.58555 0.875,-1.03125 0.13957,-0.4457 0.108968,-0.93955 -0.125,-1.34375 L 67.75,84.78125 c -0.2083,-0.3614 -0.571309,-0.6234 -0.96875,-0.75 -0.397266,-0.1266 -0.839766,-0.1115 -1.21875,0.0625 -12.332637,5.6724 -26.442284,4.1061 -37.09375,-3.3125 -0.277382,-0.1924 -0.6,-0.31 -0.9375,-0.3125 z"
       transform="translate(0,952.36218)"
       style="color:#000000;text-indent:0;text-transform:none;direction:ltr;block-progression:tb;baseline-shift:baseline;display:inline;overflow:visible;visibility:visible;fill:#2da0b7;fill-opacity:1;stroke:none;marker:none;enable-background:accumulate"
       visibility="visible"
       display="inline"
       overflow="visible"
       id="path6" />
  </g>
</svg>
